{
  "project_info": {
    "project_number": "714655662035",
    "project_id": "chat-6a4e5",
    "storage_bucket": "chat-6a4e5.appspot.com"
  },
  "client": [
    {
      "client_info": {
        "mobilesdk_app_id": "1:714655662035:android:dbbdbc8cd78880b65df926",
        "android_client_info": {
          "package_name": "com.tuningsocial.secureChat"
        }
      },
      "oauth_client": [
        {
          "client_id": "714655662035-obcma8j14m6kpj616h7o7jmueefvatso.apps.googleusercontent.com",
          "client_type": 3
        }
      ],
      "api_key": [
        {
          "current_key": "AIzaSyAujlCbej8R-XhPi1VdJZ3EuVgd-lmYOHo"
        }
      ],
      "services": {
        "appinvite_service": {
          "other_platform_oauth_client": [
            {
              "client_id": "714655662035-obcma8j14m6kpj616h7o7jmueefvatso.apps.googleusercontent.com",
              "client_type": 3
            },
            {
              "client_id": "714655662035-mbihvvv1ie4v1n4kab9g38khrq9trbp6.apps.googleusercontent.com",
              "client_type": 2,
              "ios_info": {
                "bundle_id": "com.tuningsocial.securechat"
              }
            }
          ]
        }
      }
    },
    {
      "client_info": {
        "mobilesdk_app_id": "1:714655662035:android:1134fe7f7cf1c93c5df926",
        "android_client_info": {
          "package_name": "com.tuningsocial.securechat"
        }
      },
      "oauth_client": [
        {
          "client_id": "714655662035-obcma8j14m6kpj616h7o7jmueefvatso.apps.googleusercontent.com",
          "client_type": 3
        }
      ],
      "api_key": [
        {
          "current_key": "AIzaSyAujlCbej8R-XhPi1VdJZ3EuVgd-lmYOHo"
        }
      ],
      "services": {
        "appinvite_service": {
          "other_platform_oauth_client": [
            {
              "client_id": "714655662035-obcma8j14m6kpj616h7o7jmueefvatso.apps.googleusercontent.com",
              "client_type": 3
            },
            {
              "client_id": "714655662035-mbihvvv1ie4v1n4kab9g38khrq9trbp6.apps.googleusercontent.com",
              "client_type": 2,
              "ios_info": {
                "bundle_id": "com.tuningsocial.securechat"
              }
            }
          ]
        }
      }
    }
  ],
  "configuration_version": "1"
}